module github.com/go-flutter-desktop/examples/draggable_borderless/desktop

go 1.12

require (
	github.com/go-flutter-desktop/go-flutter v0.41.0
	github.com/go-gl/glfw/v3.3/glfw v0.0.0-20200420212212-258d9bec320e
	github.com/pkg/errors v0.9.1
)
