module text_demo/go

go 1.13

require (
	github.com/go-flutter-desktop/go-flutter v0.41.0
	github.com/pkg/errors v0.9.1
)

// replace github.com/go-flutter-desktop/go-flutter => /home/pchampio/lab/go/src/github.com/go-flutter-desktop/go-flutter
